{
    "create_ts": "2022-01-27 13:35:29.750203",
    "task_id": "workflow_db82da2a-8e5f-4dc4-8b43-d22764c017e3",
    "version_id": "7876046d-57e8-48e6-8db2-96056f8009cd",
    "task_name": "Default Workflow",
    "task_class": "xpms_lib_dag.tasks.dag_task.DagTask",
    "name": "version 1",
    "display_name": "",
    "description": "",
    "start": null,
    "end": null,
    "tasks": {
        "StartTask_01968477": {
            "create_ts": "2021-10-08 11:18:18.558293",
            "task_id": "dummy_task",
            "version_id": "kk3n7w-TSSqYJTARMEkJEw",
            "task_name": "Dummy Task",
            "task_class": "xpms_lib_dag.tasks.dummy_task.DummyTask",
            "name": "StartTask",
            "display_name": "Dummy Task",
            "description": "",
            "start": null,
            "end": null,
            "tasks": {},
            "config": {
                "conditions": {}
            },
            "exec_type": "sync",
            "category": "default.Base",
            "is_enabled": true,
            "is_published": true,
            "is_deleted": false,
            "skip": false,
            "scope": "solution",
            "compatible_groups": [
                "base_dependency_group"
            ],
            "asset_dependencies": null,
            "copied_assets": false,
            "extras": {
                "index": "",
                "x_config": {
                    "basic_config": [],
                    "adv_config": [
                        {
                            "options": [
                                "any",
                                "all"
                            ],
                            "is_option_object": false,
                            "display_key": null,
                            "value_key": null,
                            "name": "dependencies",
                            "description": "dependency on previous tasks to run",
                            "data_type": "string",
                            "op_type": "categorical",
                            "value": "any",
                            "multi_select": false,
                            "hidden": true,
                            "config_path": "config.dependencies",
                            "ui_component": "",
                            "required": false,
                            "basic": false,
                            "placeholder": null,
                            "_XpmsObjectMixin__type": "CategoricalListConfiguration",
                            "_XpmsObjectMixin__api_version": "10.0"
                        }
                    ]
                }
            },
            "next": "EndTask_b61bf3a7",
            "previous": [],
            "timeout": "3000",
            "retries": 0,
            "state": {},
            "instance_id": "5zP9RbK9TW-wXLzCm2ljeA",
            "solution_id": "rulesetexec",
            "agent_id": "",
            "created_by": "system",
            "modified_by": "system",
            "cts": "",
            "uts": "",
            "_XpmsObjectMixin__type": "Task",
            "_XpmsObjectMixin__api_version": "10.0",
            "pulse_enabled": false,
            "feedback_enabled": false,
            "type": "internal",
            "parent_version": ""
        },
        "EndTask_b61bf3a7": {
            "create_ts": "2021-10-08 11:18:18.558293",
            "task_id": "dummy_task",
            "version_id": "kk3n7w-TSSqYJTARMEkJEw",
            "task_name": "Dummy Task",
            "task_class": "xpms_lib_dag.tasks.dummy_task.DummyTask",
            "name": "EndTask",
            "display_name": "Dummy Task",
            "description": "",
            "start": null,
            "end": null,
            "tasks": {},
            "config": {
                "conditions": {}
            },
            "exec_type": "sync",
            "category": "default.Base",
            "is_enabled": true,
            "is_published": true,
            "is_deleted": false,
            "skip": false,
            "scope": "solution",
            "compatible_groups": [
                "base_dependency_group"
            ],
            "asset_dependencies": null,
            "copied_assets": false,
            "extras": {
                "index": "",
                "x_config": {
                    "basic_config": [],
                    "adv_config": [
                        {
                            "options": [
                                "any",
                                "all"
                            ],
                            "is_option_object": false,
                            "display_key": null,
                            "value_key": null,
                            "name": "dependencies",
                            "description": "dependency on previous tasks to run",
                            "data_type": "string",
                            "op_type": "categorical",
                            "value": "any",
                            "multi_select": false,
                            "hidden": true,
                            "config_path": "config.dependencies",
                            "ui_component": "",
                            "required": false,
                            "basic": false,
                            "placeholder": null,
                            "_XpmsObjectMixin__type": "CategoricalListConfiguration",
                            "_XpmsObjectMixin__api_version": "10.0"
                        }
                    ]
                }
            },
            "next": [],
            "previous": "StartTask_01968477",
            "timeout": "3000",
            "retries": 0,
            "state": {},
            "instance_id": "5zP9RbK9TW-wXLzCm2ljeA",
            "solution_id": "rulesetexec",
            "agent_id": "",
            "created_by": "system",
            "modified_by": "system",
            "cts": "",
            "uts": "",
            "_XpmsObjectMixin__type": "Task",
            "_XpmsObjectMixin__api_version": "10.0",
            "pulse_enabled": false,
            "feedback_enabled": false,
            "type": "internal",
            "parent_version": ""
        }
    },
    "config": {},
    "exec_type": null,
    "category": "pipeline",
    "is_enabled": true,
    "is_published": true,
    "is_deleted": false,
    "skip": false,
    "scope": "solution",
    "compatible_groups": [
        "base_dependency_group"
    ],
    "asset_dependencies": null,
    "copied_assets": false,
    "extras": {},
    "next": [],
    "previous": [],
    "timeout": 3000,
    "retries": 0,
    "state": {},
    "instance_id": "CngjHZr7Q2qN9qUWk7IX9w",
    "agent_id": "workflow_db82da2a-8e5f-4dc4-8b43-d22764c017e3",
    "created_by": "system",
    "modified_by": "system",
    "cts": "",
    "uts": "",
    "_XpmsObjectMixin__type": "Task",
    "_XpmsObjectMixin__api_version": "10.0"
}